[
    {
        "Name": "Empty",
        "Generic Attributes": {
            "Item Name": "NSLOCTEXT(\"DT_Items [FC60994E4CB33EE3DE1294B9ACE1810C]\", \"Empty_Generic Attributes_Item Name\", \"Empty\")",
            "Description": "NSLOCTEXT(\"[6DC2CAA648C4D9F02F75C2B1E238C1B6]\", \"D83EB1514E5A849D93D4F7BA9F27239A\", \"Description\")",
            "Mesh": "None",
            "Icon": "None",
            "Weight": 0,
            "Inventory Actions": [
                "Transfer",
                "Split",
                "Drop"
            ],
            "Default inventory action": "Transfer",
            "Should Simulate Physics in World": true,
            "Spawn an item on consume": false
        },
        "Crafting Attributes": {
            "Is Craftable": false,
            "Crafting Recipe is known by default": false,
            "Crafting Locations": [
                "Player",
                "Workbench",
                "Furnace",
                "Cooking Pot"
            ],
            "Output Amount": 1,
            "Required Crafting Time": 5,
            "Max Crafting queue stack": 5
        },
        "Stackable Attributes": {
            "Stackable": false,
            "Max stack size": 100
        },
        "Durability Attributes": {
            "Has Durability": false,
            "Max Durability": 100,
            "Can Take Damage": false,
            "Has automatic decay in inventory": false,
            "Has automatic decay in world": false,
            "Automatic decay amount per interval": 0.1,
            "Has decay due to use": false,
            "Decay amount per use": 2.5,
            "Is repairable": false,
            "Repair locations": [
                "Player",
                "Workbench"
            ],
            "Automatic destroy when zero durability": false,
            "Spawn item when destroyed": false
        },
        "Combustable Attributes": {
            "Is Combustible": false,
            "Combustion rate per second": 10
        },
        "Sellable_Attributes": {
            "Is Sellable": false,
            "Base Sell Price": {
                "Item": {
                    "DataTable": "/Script/Engine.DataTable'/Game/Hyper/InventoryAndCrafting/Datamodel/DT_Items.DT_Items'",
                    "RowName": "Coins"
                },
                "Amount": 5,
                "Slot Index": 0,
                "Is being crafted": false,
                "Is this Equipmentslot": "None",
                "Durability details": {
                    "Current Durability": 0,
                    "Needs Repair": false,
                    "Is Useable": true
                },
                "Trading and Loot details": {
                    "Chance of spawing in vendor inventory": 1,
                    "Minimal Amount to restock": 1,
                    "Maximum Amount to restock": 5,
                    "Maximum Stock": 10
                },
                "Should Add XP when picked up": false,
                "Owning actor": "None",
                "Hotbar Details": {
                    "Is Linked to Hotbar": false,
                    "Hotbar slot index": 999,
                    "Inventory slot index": 999
                },
                "Equipment Slot": {
                    "Linked to this equipment slot": "None",
                    "Ammo Slot": {
                        "Ammo Data Table": {
                            "DataTable": "/Script/Engine.DataTable'/Game/Hyper/Equipment_Manager/Datamodel/DT_Ammo.DT_Ammo'",
                            "RowName": "None"
                        },
                        "Amount": 0
                    }
                }
            },
            "Base Buy Price": {
                "Item": {
                    "DataTable": "/Script/Engine.DataTable'/Game/Hyper/InventoryAndCrafting/Datamodel/DT_Items.DT_Items'",
                    "RowName": "Coins"
                },
                "Amount": 10,
                "Slot Index": 0,
                "Is being crafted": false,
                "Is this Equipmentslot": "None",
                "Durability details": {
                    "Current Durability": 0,
                    "Needs Repair": false,
                    "Is Useable": true
                },
                "Trading and Loot details": {
                    "Chance of spawing in vendor inventory": 1,
                    "Minimal Amount to restock": 1,
                    "Maximum Amount to restock": 5,
                    "Maximum Stock": 10
                },
                "Should Add XP when picked up": false,
                "Owning actor": "None",
                "Hotbar Details": {
                    "Is Linked to Hotbar": false,
                    "Hotbar slot index": 999,
                    "Inventory slot index": 999
                },
                "Equipment Slot": {
                    "Linked to this equipment slot": "None",
                    "Ammo Slot": {
                        "Ammo Data Table": {
                            "DataTable": "/Script/Engine.DataTable'/Game/Hyper/Equipment_Manager/Datamodel/DT_Ammo.DT_Ammo'",
                            "RowName": "None"
                        },
                        "Amount": 0
                    }
                }
            }
        },
        "QuestItem_Attributes": {
            "Is Quest Item?": false,
            "Is related to quest": {
                "DataTable": "None",
                "RowName": "None"
            }
        },
        "Level_Attributes": {
            "Has level attributes": false,
            "Item Level": 1,
            "Has a required skill level to use": false,
            "Gain XP after pickup of this item": false,
            "Gain XP for crafting this item": false,
            "Which category to add xp to": "None",
            "Amount of XP to add": 5
        },
        "Recipe Attributes": {
            "This item is a recipe to learn": false,
            "Which Item to learn": {
                "Item": {
                    "DataTable": "/Script/Engine.DataTable'/Game/Hyper/InventoryAndCrafting/Datamodel/DT_Items.DT_Items'",
                    "RowName": "Empty"
                },
                "Amount": 1,
                "Slot Index": 0,
                "Is being crafted": false,
                "Is this Equipmentslot": "None",
                "Durability details": {
                    "Current Durability": 100,
                    "Needs Repair": false,
                    "Is Useable": true
                },
                "Trading and Loot details": {
                    "Chance of spawing in vendor inventory": 1,
                    "Minimal Amount to restock": 1,
                    "Maximum Amount to restock": 5,
                    "Maximum Stock": 10
                },
                "Should Add XP when picked up": false,
                "Owning actor": "None",
                "Hotbar Details": {
                    "Is Linked to Hotbar": false,
                    "Hotbar slot index": 999,
                    "Inventory slot index": 999
                },
                "Equipment Slot": {
                    "Linked to this equipment slot": "None",
                    "Ammo Slot": {
                        "Ammo Data Table": {
                            "DataTable": "/Script/Engine.DataTable'/Game/Hyper/Equipment_Manager/Datamodel/DT_Ammo.DT_Ammo'",
                            "RowName": "None"
                        },
                        "Amount": 0
                    }
                }
            }
        },
        "Coupled Equipment": {
            "Is Coupled": false,
            "Data Table Row": {
                "DataTable": "/Script/Engine.DataTable'/Game/Hyper/Equipment_Manager/Datamodel/DT_Equipment.DT_Equipment'",
                "RowName": "None"
            }
        },
        "Coupled Ammo": {
            "Is Coupled": false,
            "Data Table Row": {
                "DataTable": "/Script/Engine.DataTable'/Game/Hyper/Equipment_Manager/Datamodel/DT_Ammo.DT_Ammo'",
                "RowName": "None"
            }
        }
    },
    {
        "Name": "Cloth",
        "Generic Attributes": {
            "Item Name": "NSLOCTEXT(\"DT_Items [FC60994E4CB33EE3DE1294B9ACE1810C]\", \"Cloth_Generic Attributes_Item Name\", \"Cloth\")",
            "Description": "NSLOCTEXT(\"DT_Items [FC60994E4CB33EE3DE1294B9ACE1810C]\", \"Cloth_Generic Attributes_Description\", \"A hide or skin is an animal skin treated for human use. Can be used from crafting items such as clothes.\")",
            "Mesh": "/Script/Engine.StaticMesh'/Game/Hyper/ResourcePack/Raw_Resources/Cloth/SM_Roll_Cloth.SM_Roll_Cloth'",
            "Icon": "/Script/Engine.Texture2D'/Game/Hyper/ResourcePack/Icons/Item_Icons/T_Icon_SM_Roll_Cloth.T_Icon_SM_Roll_Cloth'",
            "Weight": 0.25,
            "Inventory Actions": [
                "Transfer",
                "Split",
                "Drop"
            ],
            "Default inventory action": "Transfer",
            "Should Simulate Physics in World": true,
            "Spawn an item on consume": false,
            "Categories": [
                "Resource"
            ]
        },
        "Crafting Attributes": {
            "Is Craftable": true,
            "Crafting Recipe is known by default": true,
            "Crafting Locations": [
                "Player",
                "Tanning Rack"
            ],
            "Output Amount": 1,
            "Required Crafting Time": 5,
            "Max Crafting queue stack": 5,
            "Recipe": [
                {
                    "Item": {
                        "DataTable": "/Script/Engine.DataTable'/Game/Hyper/InventoryAndCrafting/Datamodel/DT_Items.DT_Items'",
                        "RowName": "Fiber"
                    },
                    "Amount": 5,
                    "Slot Index": 0,
                    "Is being crafted": false,
                    "Is this Equipmentslot": "None",
                    "Durability details": {
                        "Current Durability": 100,
                        "Needs Repair": false,
                        "Is Useable": true
                    },
                    "Trading and Loot details": {
                        "Chance of spawing in vendor inventory": 1,
                        "Minimal Amount to restock": 1,
                        "Maximum Amount to restock": 5,
                        "Maximum Stock": 10
                    },
                    "Should Add XP when picked up": true,
                    "Owning actor": "None",
                    "Hotbar Details": {
                        "Is Linked to Hotbar": false,
                        "Hotbar slot index": 999,
                        "Inventory slot index": 999
                    },
                    "Equipment Slot": {
                        "Linked to this equipment slot": "None",
                        "Ammo Slot": {
                            "Ammo Data Table": {
                                "DataTable": "/Script/Engine.DataTable'/Game/Hyper/Equipment_Manager/Datamodel/DT_Ammo.DT_Ammo'",
                                "RowName": "None"
                            },
                            "Amount": 0
                        }
                    }
                }
            ]
        },
        "Stackable Attributes": {
            "Stackable": true,
            "Max stack size": 100
        },
        "Durability Attributes": {
            "Has Durability": false,
            "Max Durability": 100,
            "Can Take Damage": false,
            "Has automatic decay in inventory": false,
            "Has automatic decay in world": false,
            "Automatic decay amount per interval": 0.1,
            "Has decay due to use": false,
            "Decay amount per use": 2.5,
            "Is repairable": true,
            "Repair locations": [
                "Player",
                "Workbench"
            ],
            "Automatic destroy when zero durability": false,
            "Spawn item when destroyed": false
        },
        "Combustable Attributes": {
            "Is Combustible": false,
            "Combustion rate per second": 10
        },
        "Sellable_Attributes": {
            "Is Sellable": true,
            "Base Sell Price": {
                "Item": {
                    "DataTable": "/Script/Engine.DataTable'/Game/Hyper/InventoryAndCrafting/Datamodel/DT_Items.DT_Items'",
                    "RowName": "Coins"
                },
                "Amount": 40,
                "Slot Index": 0,
                "Is being crafted": false,
                "Is this Equipmentslot": "None",
                "Durability details": {
                    "Current Durability": 0,
                    "Needs Repair": false,
                    "Is Useable": true
                },
                "Trading and Loot details": {
                    "Chance of spawing in vendor inventory": 1,
                    "Minimal Amount to restock": 1,
                    "Maximum Amount to restock": 5,
                    "Maximum Stock": 10
                },
                "Should Add XP when picked up": false,
                "Owning actor": "None",
                "Hotbar Details": {
                    "Is Linked to Hotbar": false,
                    "Hotbar slot index": 999,
                    "Inventory slot index": 999
                },
                "Equipment Slot": {
                    "Linked to this equipment slot": "None",
                    "Ammo Slot": {
                        "Ammo Data Table": {
                            "DataTable": "/Script/Engine.DataTable'/Game/Hyper/Equipment_Manager/Datamodel/DT_Ammo.DT_Ammo'",
                            "RowName": "None"
                        },
                        "Amount": 0
                    }
                }
            },
            "Base Buy Price": {
                "Item": {
                    "DataTable": "/Script/Engine.DataTable'/Game/Hyper/InventoryAndCrafting/Datamodel/DT_Items.DT_Items'",
                    "RowName": "Coins"
                },
                "Amount": 48,
                "Slot Index": 0,
                "Is being crafted": false,
                "Is this Equipmentslot": "None",
                "Durability details": {
                    "Current Durability": 0,
                    "Needs Repair": false,
                    "Is Useable": true
                },
                "Trading and Loot details": {
                    "Chance of spawing in vendor inventory": 1,
                    "Minimal Amount to restock": 1,
                    "Maximum Amount to restock": 5,
                    "Maximum Stock": 10
                },
                "Should Add XP when picked up": false,
                "Owning actor": "None",
                "Hotbar Details": {
                    "Is Linked to Hotbar": false,
                    "Hotbar slot index": 999,
                    "Inventory slot index": 999
                },
                "Equipment Slot": {
                    "Linked to this equipment slot": "None",
                    "Ammo Slot": {
                        "Ammo Data Table": {
                            "DataTable": "/Script/Engine.DataTable'/Game/Hyper/Equipment_Manager/Datamodel/DT_Ammo.DT_Ammo'",
                            "RowName": "None"
                        },
                        "Amount": 0
                    }
                }
            }
        },
        "QuestItem_Attributes": {
            "Is Quest Item?": false,
            "Is related to quest": {
                "DataTable": "None",
                "RowName": "None"
            }
        },
        "Level_Attributes": {
            "Has level attributes": false,
            "Item Level": 1,
            "Has a required skill level to use": false,
            "Gain XP after pickup of this item": false,
            "Gain XP for crafting this item": true,
            "Which category to add xp to": "Tailoring",
            "Amount of XP to add": 10
        },
        "Recipe Attributes": {
            "This item is a recipe to learn": false,
            "Which Item to learn": {
                "Item": {
                    "DataTable": "/Script/Engine.DataTable'/Game/Hyper/InventoryAndCrafting/Datamodel/DT_Items.DT_Items'",
                    "RowName": "Empty"
                },
                "Amount": 1,
                "Slot Index": 0,
                "Is being crafted": false,
                "Is this Equipmentslot": "None",
                "Durability details": {
                    "Current Durability": 100,
                    "Needs Repair": false,
                    "Is Useable": true
                },
                "Trading and Loot details": {
                    "Chance of spawing in vendor inventory": 1,
                    "Minimal Amount to restock": 1,
                    "Maximum Amount to restock": 5,
                    "Maximum Stock": 10
                },
                "Should Add XP when picked up": false,
                "Owning actor": "None",
                "Hotbar Details": {
                    "Is Linked to Hotbar": false,
                    "Hotbar slot index": 999,
                    "Inventory slot index": 999
                },
                "Equipment Slot": {
                    "Linked to this equipment slot": "None",
                    "Ammo Slot": {
                        "Ammo Data Table": {
                            "DataTable": "/Script/Engine.DataTable'/Game/Hyper/Equipment_Manager/Datamodel/DT_Ammo.DT_Ammo'",
                            "RowName": "None"
                        },
                        "Amount": 0
                    }
                }
            }
        },
        "Coupled Equipment": {
            "Is Coupled": false,
            "Data Table Row": {
                "DataTable": "/Script/Engine.DataTable'/Game/Hyper/Equipment_Manager/Datamodel/DT_Equipment.DT_Equipment'",
                "RowName": "None"
            }
        },
        "Coupled Ammo": {
            "Is Coupled": false,
            "Data Table Row": {
                "DataTable": "/Script/Engine.DataTable'/Game/Hyper/Equipment_Manager/Datamodel/DT_Ammo.DT_Ammo'",
                "RowName": "None"
            }
        }
    },
    {
        "Name": "Coins",
        "Generic Attributes": {
            "Item Name": "NSLOCTEXT(\"DT_Items [FC60994E4CB33EE3DE1294B9ACE1810C]\", \"Coins_Generic Attributes_Item Name\", \"Coins\")",
            "Description": "NSLOCTEXT(\"DT_Items [FC60994E4CB33EE3DE1294B9ACE1810C]\", \"Coins_Generic Attributes_Description\", \"A coin is a small, flat, round piece of metal used primarily as a medium of exchange or legal tender.\")",
            "Mesh": "/Script/Engine.StaticMesh'/Game/Hyper/ResourcePack/Raw_Resources/Coin/Mesh/SM_Coin.SM_Coin'",
            "Icon": "/Script/Engine.Texture2D'/Game/Hyper/ResourcePack/Icons/Item_Icons/T_Icon_SM_Coin.T_Icon_SM_Coin'",
            "Weight": 0,
            "Inventory Actions": [
                "Transfer",
                "Split",
                "Drop"
            ],
            "Default inventory action": "Transfer",
            "Should Simulate Physics in World": true,
            "Spawn an item on consume": false,
            "Categories": [
                "Resource"
            ]
        },
        "Crafting Attributes": {
            "Is Craftable": true,
            "Crafting Recipe is known by default": true,
            "Crafting Locations": [
                "Forge"
            ],
            "Output Amount": 1000,
            "Required Crafting Time": 5,
            "Max Crafting queue stack": 5,
            "Recipe": [
                {
                    "Item": {
                        "DataTable": "/Script/Engine.DataTable'/Game/Hyper/InventoryAndCrafting/Datamodel/DT_Items.DT_Items'",
                        "RowName": "Gold_Ingot"
                    },
                    "Amount": 1,
                    "Slot Index": 0,
                    "Is being crafted": false,
                    "Is this Equipmentslot": "None",
                    "Durability details": {
                        "Current Durability": 100,
                        "Needs Repair": false,
                        "Is Useable": true
                    },
                    "Trading and Loot details": {
                        "Chance of spawing in vendor inventory": 1,
                        "Minimal Amount to restock": 1,
                        "Maximum Amount to restock": 5,
                        "Maximum Stock": 10
                    },
                    "Should Add XP when picked up": true,
                    "Owning actor": "None",
                    "Hotbar Details": {
                        "Is Linked to Hotbar": false,
                        "Hotbar slot index": 999,
                        "Inventory slot index": 999
                    },
                    "Equipment Slot": {
                        "Linked to this equipment slot": "None",
                        "Ammo Slot": {
                            "Ammo Data Table": {
                                "DataTable": "/Script/Engine.DataTable'/Game/Hyper/Equipment_Manager/Datamodel/DT_Ammo.DT_Ammo'",
                                "RowName": "None"
                            },
                            "Amount": 0
                        }
                    }
                },
                {
                    "Item": {
                        "DataTable": "/Script/Engine.DataTable'/Game/Hyper/InventoryAndCrafting/Datamodel/DT_Items.DT_Items'",
                        "RowName": "Coal_Ore"
                    },
                    "Amount": 1,
                    "Slot Index": 0,
                    "Is being crafted": false,
                    "Is this Equipmentslot": "None",
                    "Durability details": {
                        "Current Durability": 100,
                        "Needs Repair": false,
                        "Is Useable": true
                    },
                    "Trading and Loot details": {
                        "Chance of spawing in vendor inventory": 1,
                        "Minimal Amount to restock": 1,
                        "Maximum Amount to restock": 5,
                        "Maximum Stock": 10
                    },
                    "Should Add XP when picked up": true,
                    "Owning actor": "None",
                    "Hotbar Details": {
                        "Is Linked to Hotbar": false,
                        "Hotbar slot index": 999,
                        "Inventory slot index": 999
                    },
                    "Equipment Slot": {
                        "Linked to this equipment slot": "None",
                        "Ammo Slot": {
                            "Ammo Data Table": {
                                "DataTable": "/Script/Engine.DataTable'/Game/Hyper/Equipment_Manager/Datamodel/DT_Ammo.DT_Ammo'",
                                "RowName": "None"
                            },
                            "Amount": 0
                        }
                    }
                }
            ]
        },
        "Stackable Attributes": {
            "Stackable": true,
            "Max stack size": 10000
        },
        "Durability Attributes": {
            "Has Durability": false,
            "Max Durability": 100,
            "Can Take Damage": false,
            "Has automatic decay in inventory": false,
            "Has automatic decay in world": false,
            "Automatic decay amount per interval": 0.1,
            "Has decay due to use": false,
            "Decay amount per use": 2.5,
            "Is repairable": true,
            "Repair locations": [
                "Player",
                "Workbench"
            ],
            "Automatic destroy when zero durability": false,
            "Spawn item when destroyed": false
        },
        "Combustable Attributes": {
            "Is Combustible": false,
            "Combustion rate per second": 10
        },
        "Sellable_Attributes": {
            "Is Sellable": false,
            "Base Sell Price": {
                "Item": {
                    "DataTable": "/Script/Engine.DataTable'/Game/Hyper/InventoryAndCrafting/Datamodel/DT_Items.DT_Items'",
                    "RowName": "None"
                },
                "Amount": 5,
                "Slot Index": 0,
                "Is being crafted": false,
                "Is this Equipmentslot": "None",
                "Durability details": {
                    "Current Durability": 0,
                    "Needs Repair": false,
                    "Is Useable": true
                },
                "Trading and Loot details": {
                    "Chance of spawing in vendor inventory": 1,
                    "Minimal Amount to restock": 1,
                    "Maximum Amount to restock": 5,
                    "Maximum Stock": 10
                },
                "Should Add XP when picked up": false,
                "Owning actor": "None",
                "Hotbar Details": {
                    "Is Linked to Hotbar": false,
                    "Hotbar slot index": 999,
                    "Inventory slot index": 999
                },
                "Equipment Slot": {
                    "Linked to this equipment slot": "None",
                    "Ammo Slot": {
                        "Ammo Data Table": {
                            "DataTable": "/Script/Engine.DataTable'/Game/Hyper/Equipment_Manager/Datamodel/DT_Ammo.DT_Ammo'",
                            "RowName": "None"
                        },
                        "Amount": 0
                    }
                }
            },
            "Base Buy Price": {
                "Item": {
                    "DataTable": "/Script/Engine.DataTable'/Game/Hyper/InventoryAndCrafting/Datamodel/DT_Items.DT_Items'",
                    "RowName": "None"
                },
                "Amount": 10,
                "Slot Index": 0,
                "Is being crafted": false,
                "Is this Equipmentslot": "None",
                "Durability details": {
                    "Current Durability": 0,
                    "Needs Repair": false,
                    "Is Useable": true
                },
                "Trading and Loot details": {
                    "Chance of spawing in vendor inventory": 1,
                    "Minimal Amount to restock": 1,
                    "Maximum Amount to restock": 5,
                    "Maximum Stock": 10
                },
                "Should Add XP when picked up": false,
                "Owning actor": "None",
                "Hotbar Details": {
                    "Is Linked to Hotbar": false,
                    "Hotbar slot index": 999,
                    "Inventory slot index": 999
                },
                "Equipment Slot": {
                    "Linked to this equipment slot": "None",
                    "Ammo Slot": {
                        "Ammo Data Table": {
                            "DataTable": "/Script/Engine.DataTable'/Game/Hyper/Equipment_Manager/Datamodel/DT_Ammo.DT_Ammo'",
                            "RowName": "None"
                        },
                        "Amount": 0
                    }
                }
            }
        },
        "QuestItem_Attributes": {
            "Is Quest Item?": false,
            "Is related to quest": {
                "DataTable": "None",
                "RowName": "None"
            }
        },
        "Level_Attributes": {
            "Has level attributes": false,
            "Item Level": 1,
            "Has a required skill level to use": false,
            "Gain XP after pickup of this item": false,
            "Gain XP for crafting this item": false,
            "Which category to add xp to": "None",
            "Amount of XP to add": 5
        },
        "Recipe Attributes": {
            "This item is a recipe to learn": false,
            "Which Item to learn": {
                "Item": {
                    "DataTable": "/Script/Engine.DataTable'/Game/Hyper/InventoryAndCrafting/Datamodel/DT_Items.DT_Items'",
                    "RowName": "Empty"
                },
                "Amount": 1,
                "Slot Index": 0,
                "Is being crafted": false,
                "Is this Equipmentslot": "None",
                "Durability details": {
                    "Current Durability": 100,
                    "Needs Repair": false,
                    "Is Useable": true
                },
                "Trading and Loot details": {
                    "Chance of spawing in vendor inventory": 1,
                    "Minimal Amount to restock": 1,
                    "Maximum Amount to restock": 5,
                    "Maximum Stock": 10
                },
                "Should Add XP when picked up": false,
                "Owning actor": "None",
                "Hotbar Details": {
                    "Is Linked to Hotbar": false,
                    "Hotbar slot index": 999,
                    "Inventory slot index": 999
                },
                "Equipment Slot": {
                    "Linked to this equipment slot": "None",
                    "Ammo Slot": {
                        "Ammo Data Table": {
                            "DataTable": "/Script/Engine.DataTable'/Game/Hyper/Equipment_Manager/Datamodel/DT_Ammo.DT_Ammo'",
                            "RowName": "None"
                        },
                        "Amount": 0
                    }
                }
            }
        },
        "Coupled Equipment": {
            "Is Coupled": false,
            "Data Table Row": {
                "DataTable": "/Script/Engine.DataTable'/Game/Hyper/Equipment_Manager/Datamodel/DT_Equipment.DT_Equipment'",
                "RowName": "None"
            }
        },
        "Coupled Ammo": {
            "Is Coupled": false,
            "Data Table Row": {
                "DataTable": "/Script/Engine.DataTable'/Game/Hyper/Equipment_Manager/Datamodel/DT_Ammo.DT_Ammo'",
                "RowName": "None"
            }
        }
    }
]